{
  "formatVersion": 1,
  "database": {
    "version": 1,
    "identityHash": "f72a9b8a512737ecbd1ede3ef83f2518",
    "entities": [
      {
        "tableName": "videos",
        "createSql": "CREATE TABLE IF NOT EXISTS `${TABLE_NAME}` (`id` INTEGER PRIMARY KEY AUTOINCREMENT NOT NULL, `userid` TEXT, `vid` TEXT, `videotitle` TEXT, `videodescription` TEXT, `videothumbnail` TEXT)",
        "fields": [
          {
            "fieldPath": "id",
            "columnName": "id",
            "affinity": "INTEGER",
            "notNull": true
          },
          {
            "fieldPath": "userId",
            "columnName": "userid",
            "affinity": "TEXT",
            "notNull": false
          },
          {
            "fieldPath": "vid",
            "columnName": "vid",
            "affinity": "TEXT",
            "notNull": false
          },
          {
            "fieldPath": "videoTitle",
            "columnName": "videotitle",
            "affinity": "TEXT",
            "notNull": false
          },
          {
            "fieldPath": "videoDescription",
            "columnName": "videodescription",
            "affinity": "TEXT",
            "notNull": false
          },
          {
            "fieldPath": "videoThumbnile",
            "columnName": "videothumbnail",
            "affinity": "TEXT",
            "notNull": false
          }
        ],
        "primaryKey": {
          "columnNames": [
            "id"
          ],
          "autoGenerate": true
        },
        "indices": [],
        "foreignKeys": []
      }
    ],
    "setupQueries": [
      "CREATE TABLE IF NOT EXISTS room_master_table (id INTEGER PRIMARY KEY,identity_hash TEXT)",
      "INSERT OR REPLACE INTO room_master_table (id,identity_hash) VALUES(42, \"f72a9b8a512737ecbd1ede3ef83f2518\")"
    ]
  }
}